
a.out:     file format elf64-x86-64


Disassembly of section .init:

0000000000001000 <_init>:
    1000:	48 83 ec 08          	sub    rsp,0x8
    1004:	48 8b 05 dd 2f 00 00 	mov    rax,QWORD PTR [rip+0x2fdd]        # 3fe8 <__gmon_start__>
    100b:	48 85 c0             	test   rax,rax
    100e:	74 02                	je     1012 <_init+0x12>
    1010:	ff d0                	call   rax
    1012:	48 83 c4 08          	add    rsp,0x8
    1016:	c3                   	ret    

Disassembly of section .plt:

0000000000001020 <.plt>:
    1020:	ff 35 e2 2f 00 00    	push   QWORD PTR [rip+0x2fe2]        # 4008 <_GLOBAL_OFFSET_TABLE_+0x8>
    1026:	ff 25 e4 2f 00 00    	jmp    QWORD PTR [rip+0x2fe4]        # 4010 <_GLOBAL_OFFSET_TABLE_+0x10>
    102c:	0f 1f 40 00          	nop    DWORD PTR [rax+0x0]

0000000000001030 <printf@plt>:
    1030:	ff 25 e2 2f 00 00    	jmp    QWORD PTR [rip+0x2fe2]        # 4018 <printf@GLIBC_2.2.5>
    1036:	68 00 00 00 00       	push   0x0
    103b:	e9 e0 ff ff ff       	jmp    1020 <.plt>

0000000000001040 <srand@plt>:
    1040:	ff 25 da 2f 00 00    	jmp    QWORD PTR [rip+0x2fda]        # 4020 <srand@GLIBC_2.2.5>
    1046:	68 01 00 00 00       	push   0x1
    104b:	e9 d0 ff ff ff       	jmp    1020 <.plt>

0000000000001050 <time@plt>:
    1050:	ff 25 d2 2f 00 00    	jmp    QWORD PTR [rip+0x2fd2]        # 4028 <time@GLIBC_2.2.5>
    1056:	68 02 00 00 00       	push   0x2
    105b:	e9 c0 ff ff ff       	jmp    1020 <.plt>

0000000000001060 <__isoc99_scanf@plt>:
    1060:	ff 25 ca 2f 00 00    	jmp    QWORD PTR [rip+0x2fca]        # 4030 <__isoc99_scanf@GLIBC_2.7>
    1066:	68 03 00 00 00       	push   0x3
    106b:	e9 b0 ff ff ff       	jmp    1020 <.plt>

Disassembly of section .plt.got:

0000000000001070 <__cxa_finalize@plt>:
    1070:	ff 25 82 2f 00 00    	jmp    QWORD PTR [rip+0x2f82]        # 3ff8 <__cxa_finalize@GLIBC_2.2.5>
    1076:	66 90                	xchg   ax,ax

Disassembly of section .text:

0000000000001080 <_start>:
    1080:	31 ed                	xor    ebp,ebp
    1082:	49 89 d1             	mov    r9,rdx
    1085:	5e                   	pop    rsi
    1086:	48 89 e2             	mov    rdx,rsp
    1089:	48 83 e4 f0          	and    rsp,0xfffffffffffffff0
    108d:	50                   	push   rax
    108e:	54                   	push   rsp
    108f:	4c 8d 05 7a 02 00 00 	lea    r8,[rip+0x27a]        # 1310 <__libc_csu_fini>
    1096:	48 8d 0d 13 02 00 00 	lea    rcx,[rip+0x213]        # 12b0 <__libc_csu_init>
    109d:	48 8d 3d 43 01 00 00 	lea    rdi,[rip+0x143]        # 11e7 <main>
    10a4:	ff 15 36 2f 00 00    	call   QWORD PTR [rip+0x2f36]        # 3fe0 <__libc_start_main@GLIBC_2.2.5>
    10aa:	f4                   	hlt    
    10ab:	0f 1f 44 00 00       	nop    DWORD PTR [rax+rax*1+0x0]

00000000000010b0 <deregister_tm_clones>:
    10b0:	48 8d 3d 91 2f 00 00 	lea    rdi,[rip+0x2f91]        # 4048 <__TMC_END__>
    10b7:	48 8d 05 8a 2f 00 00 	lea    rax,[rip+0x2f8a]        # 4048 <__TMC_END__>
    10be:	48 39 f8             	cmp    rax,rdi
    10c1:	74 15                	je     10d8 <deregister_tm_clones+0x28>
    10c3:	48 8b 05 0e 2f 00 00 	mov    rax,QWORD PTR [rip+0x2f0e]        # 3fd8 <_ITM_deregisterTMCloneTable>
    10ca:	48 85 c0             	test   rax,rax
    10cd:	74 09                	je     10d8 <deregister_tm_clones+0x28>
    10cf:	ff e0                	jmp    rax
    10d1:	0f 1f 80 00 00 00 00 	nop    DWORD PTR [rax+0x0]
    10d8:	c3                   	ret    
    10d9:	0f 1f 80 00 00 00 00 	nop    DWORD PTR [rax+0x0]

00000000000010e0 <register_tm_clones>:
    10e0:	48 8d 3d 61 2f 00 00 	lea    rdi,[rip+0x2f61]        # 4048 <__TMC_END__>
    10e7:	48 8d 35 5a 2f 00 00 	lea    rsi,[rip+0x2f5a]        # 4048 <__TMC_END__>
    10ee:	48 29 fe             	sub    rsi,rdi
    10f1:	48 c1 fe 03          	sar    rsi,0x3
    10f5:	48 89 f0             	mov    rax,rsi
    10f8:	48 c1 e8 3f          	shr    rax,0x3f
    10fc:	48 01 c6             	add    rsi,rax
    10ff:	48 d1 fe             	sar    rsi,1
    1102:	74 14                	je     1118 <register_tm_clones+0x38>
    1104:	48 8b 05 e5 2e 00 00 	mov    rax,QWORD PTR [rip+0x2ee5]        # 3ff0 <_ITM_registerTMCloneTable>
    110b:	48 85 c0             	test   rax,rax
    110e:	74 08                	je     1118 <register_tm_clones+0x38>
    1110:	ff e0                	jmp    rax
    1112:	66 0f 1f 44 00 00    	nop    WORD PTR [rax+rax*1+0x0]
    1118:	c3                   	ret    
    1119:	0f 1f 80 00 00 00 00 	nop    DWORD PTR [rax+0x0]

0000000000001120 <__do_global_dtors_aux>:
    1120:	80 3d 21 2f 00 00 00 	cmp    BYTE PTR [rip+0x2f21],0x0        # 4048 <__TMC_END__>
    1127:	75 2f                	jne    1158 <__do_global_dtors_aux+0x38>
    1129:	55                   	push   rbp
    112a:	48 83 3d c6 2e 00 00 	cmp    QWORD PTR [rip+0x2ec6],0x0        # 3ff8 <__cxa_finalize@GLIBC_2.2.5>
    1131:	00 
    1132:	48 89 e5             	mov    rbp,rsp
    1135:	74 0c                	je     1143 <__do_global_dtors_aux+0x23>
    1137:	48 8b 3d 02 2f 00 00 	mov    rdi,QWORD PTR [rip+0x2f02]        # 4040 <__dso_handle>
    113e:	e8 2d ff ff ff       	call   1070 <__cxa_finalize@plt>
    1143:	e8 68 ff ff ff       	call   10b0 <deregister_tm_clones>
    1148:	c6 05 f9 2e 00 00 01 	mov    BYTE PTR [rip+0x2ef9],0x1        # 4048 <__TMC_END__>
    114f:	5d                   	pop    rbp
    1150:	c3                   	ret    
    1151:	0f 1f 80 00 00 00 00 	nop    DWORD PTR [rax+0x0]
    1158:	c3                   	ret    
    1159:	0f 1f 80 00 00 00 00 	nop    DWORD PTR [rax+0x0]

0000000000001160 <frame_dummy>:
    1160:	e9 7b ff ff ff       	jmp    10e0 <register_tm_clones>

0000000000001165 <transform>:
    1165:	55                   	push   rbp
    1166:	48 89 e5             	mov    rbp,rsp
    1169:	89 f8                	mov    eax,edi
    116b:	89 75 f8             	mov    DWORD PTR [rbp-0x8],esi
    116e:	48 89 55 f0          	mov    QWORD PTR [rbp-0x10],rdx
    1172:	88 45 fc             	mov    BYTE PTR [rbp-0x4],al
    1175:	0f be 45 fc          	movsx  eax,BYTE PTR [rbp-0x4]
    1179:	83 f8 01             	cmp    eax,0x1
    117c:	74 2a                	je     11a8 <transform+0x43>
    117e:	83 f8 01             	cmp    eax,0x1
    1181:	7f 06                	jg     1189 <transform+0x24>
    1183:	85 c0                	test   eax,eax
    1185:	74 0e                	je     1195 <transform+0x30>
    1187:	eb 5b                	jmp    11e4 <transform+0x7f>
    1189:	83 f8 02             	cmp    eax,0x2
    118c:	74 2d                	je     11bb <transform+0x56>
    118e:	83 f8 03             	cmp    eax,0x3
    1191:	74 3c                	je     11cf <transform+0x6a>
    1193:	eb 4f                	jmp    11e4 <transform+0x7f>
    1195:	48 8b 45 f0          	mov    rax,QWORD PTR [rbp-0x10]
    1199:	8b 10                	mov    edx,DWORD PTR [rax]
    119b:	8b 45 f8             	mov    eax,DWORD PTR [rbp-0x8]
    119e:	01 c2                	add    edx,eax
    11a0:	48 8b 45 f0          	mov    rax,QWORD PTR [rbp-0x10]
    11a4:	89 10                	mov    DWORD PTR [rax],edx
    11a6:	eb 3c                	jmp    11e4 <transform+0x7f>
    11a8:	48 8b 45 f0          	mov    rax,QWORD PTR [rbp-0x10]
    11ac:	8b 00                	mov    eax,DWORD PTR [rax]
    11ae:	8b 55 f8             	mov    edx,DWORD PTR [rbp-0x8]
    11b1:	29 c2                	sub    edx,eax
    11b3:	48 8b 45 f0          	mov    rax,QWORD PTR [rbp-0x10]
    11b7:	89 10                	mov    DWORD PTR [rax],edx
    11b9:	eb 29                	jmp    11e4 <transform+0x7f>
    11bb:	48 8b 45 f0          	mov    rax,QWORD PTR [rbp-0x10]
    11bf:	8b 00                	mov    eax,DWORD PTR [rax]
    11c1:	0f af 45 f8          	imul   eax,DWORD PTR [rbp-0x8]
    11c5:	89 c2                	mov    edx,eax
    11c7:	48 8b 45 f0          	mov    rax,QWORD PTR [rbp-0x10]
    11cb:	89 10                	mov    DWORD PTR [rax],edx
    11cd:	eb 15                	jmp    11e4 <transform+0x7f>
    11cf:	48 8b 45 f0          	mov    rax,QWORD PTR [rbp-0x10]
    11d3:	8b 08                	mov    ecx,DWORD PTR [rax]
    11d5:	8b 45 f8             	mov    eax,DWORD PTR [rbp-0x8]
    11d8:	99                   	cdq    
    11d9:	f7 f9                	idiv   ecx
    11db:	89 c2                	mov    edx,eax
    11dd:	48 8b 45 f0          	mov    rax,QWORD PTR [rbp-0x10]
    11e1:	89 10                	mov    DWORD PTR [rax],edx
    11e3:	90                   	nop
    11e4:	90                   	nop
    11e5:	5d                   	pop    rbp
    11e6:	c3                   	ret    

00000000000011e7 <main>:
    11e7:	55                   	push   rbp
    11e8:	48 89 e5             	mov    rbp,rsp
    11eb:	48 83 ec 20          	sub    rsp,0x20
    11ef:	bf 00 00 00 00       	mov    edi,0x0
    11f4:	e8 57 fe ff ff       	call   1050 <time@plt>
    11f9:	89 c7                	mov    edi,eax
    11fb:	e8 40 fe ff ff       	call   1040 <srand@plt>
    1200:	c7 45 fc 03 00 00 00 	mov    DWORD PTR [rbp-0x4],0x3
    1207:	c7 45 f4 06 00 00 00 	mov    DWORD PTR [rbp-0xc],0x6
    120e:	c7 45 f0 02 00 00 00 	mov    DWORD PTR [rbp-0x10],0x2
    1215:	c6 45 fb 02          	mov    BYTE PTR [rbp-0x5],0x2
    1219:	c6 45 fa 03          	mov    BYTE PTR [rbp-0x6],0x3
    121d:	0f be 45 fb          	movsx  eax,BYTE PTR [rbp-0x5]
    1221:	48 8d 55 f4          	lea    rdx,[rbp-0xc]
    1225:	8b 4d fc             	mov    ecx,DWORD PTR [rbp-0x4]
    1228:	89 ce                	mov    esi,ecx
    122a:	89 c7                	mov    edi,eax
    122c:	e8 34 ff ff ff       	call   1165 <transform>
    1231:	8b 4d f4             	mov    ecx,DWORD PTR [rbp-0xc]
    1234:	0f be 45 fa          	movsx  eax,BYTE PTR [rbp-0x6]
    1238:	48 8d 55 f0          	lea    rdx,[rbp-0x10]
    123c:	89 ce                	mov    esi,ecx
    123e:	89 c7                	mov    edi,eax
    1240:	e8 20 ff ff ff       	call   1165 <transform>
    1245:	48 8d 3d b8 0d 00 00 	lea    rdi,[rip+0xdb8]        # 2004 <_IO_stdin_used+0x4>
    124c:	b8 00 00 00 00       	mov    eax,0x0
    1251:	e8 da fd ff ff       	call   1030 <printf@plt>
    1256:	48 8d 45 ec          	lea    rax,[rbp-0x14]
    125a:	48 89 c6             	mov    rsi,rax
    125d:	48 8d 3d bb 0d 00 00 	lea    rdi,[rip+0xdbb]        # 201f <_IO_stdin_used+0x1f>
    1264:	b8 00 00 00 00       	mov    eax,0x0
    1269:	e8 f2 fd ff ff       	call   1060 <__isoc99_scanf@plt>
    126e:	8b 55 ec             	mov    edx,DWORD PTR [rbp-0x14]
    1271:	8b 45 f0             	mov    eax,DWORD PTR [rbp-0x10]
    1274:	39 c2                	cmp    edx,eax
    1276:	75 13                	jne    128b <main+0xa4>
    1278:	48 8d 3d a3 0d 00 00 	lea    rdi,[rip+0xda3]        # 2022 <_IO_stdin_used+0x22>
    127f:	b8 00 00 00 00       	mov    eax,0x0
    1284:	e8 a7 fd ff ff       	call   1030 <printf@plt>
    1289:	eb 11                	jmp    129c <main+0xb5>
    128b:	48 8d 3d a5 0d 00 00 	lea    rdi,[rip+0xda5]        # 2037 <_IO_stdin_used+0x37>
    1292:	b8 00 00 00 00       	mov    eax,0x0
    1297:	e8 94 fd ff ff       	call   1030 <printf@plt>
    129c:	b8 00 00 00 00       	mov    eax,0x0
    12a1:	c9                   	leave  
    12a2:	c3                   	ret    
    12a3:	66 2e 0f 1f 84 00 00 	nop    WORD PTR cs:[rax+rax*1+0x0]
    12aa:	00 00 00 
    12ad:	0f 1f 00             	nop    DWORD PTR [rax]

00000000000012b0 <__libc_csu_init>:
    12b0:	41 57                	push   r15
    12b2:	49 89 d7             	mov    r15,rdx
    12b5:	41 56                	push   r14
    12b7:	49 89 f6             	mov    r14,rsi
    12ba:	41 55                	push   r13
    12bc:	41 89 fd             	mov    r13d,edi
    12bf:	41 54                	push   r12
    12c1:	4c 8d 25 20 2b 00 00 	lea    r12,[rip+0x2b20]        # 3de8 <__frame_dummy_init_array_entry>
    12c8:	55                   	push   rbp
    12c9:	48 8d 2d 20 2b 00 00 	lea    rbp,[rip+0x2b20]        # 3df0 <__init_array_end>
    12d0:	53                   	push   rbx
    12d1:	4c 29 e5             	sub    rbp,r12
    12d4:	48 83 ec 08          	sub    rsp,0x8
    12d8:	e8 23 fd ff ff       	call   1000 <_init>
    12dd:	48 c1 fd 03          	sar    rbp,0x3
    12e1:	74 1b                	je     12fe <__libc_csu_init+0x4e>
    12e3:	31 db                	xor    ebx,ebx
    12e5:	0f 1f 00             	nop    DWORD PTR [rax]
    12e8:	4c 89 fa             	mov    rdx,r15
    12eb:	4c 89 f6             	mov    rsi,r14
    12ee:	44 89 ef             	mov    edi,r13d
    12f1:	41 ff 14 dc          	call   QWORD PTR [r12+rbx*8]
    12f5:	48 83 c3 01          	add    rbx,0x1
    12f9:	48 39 dd             	cmp    rbp,rbx
    12fc:	75 ea                	jne    12e8 <__libc_csu_init+0x38>
    12fe:	48 83 c4 08          	add    rsp,0x8
    1302:	5b                   	pop    rbx
    1303:	5d                   	pop    rbp
    1304:	41 5c                	pop    r12
    1306:	41 5d                	pop    r13
    1308:	41 5e                	pop    r14
    130a:	41 5f                	pop    r15
    130c:	c3                   	ret    
    130d:	0f 1f 00             	nop    DWORD PTR [rax]

0000000000001310 <__libc_csu_fini>:
    1310:	c3                   	ret    

Disassembly of section .fini:

0000000000001314 <_fini>:
    1314:	48 83 ec 08          	sub    rsp,0x8
    1318:	48 83 c4 08          	add    rsp,0x8
    131c:	c3                   	ret    

a.out:     file format elf64-x86-64


Disassembly of section .init:

0000000000001000 <_init>:
    1000:	48 83 ec 08          	sub    rsp,0x8
    1004:	48 8b 05 dd 2f 00 00 	mov    rax,QWORD PTR [rip+0x2fdd]        # 3fe8 <__gmon_start__>
    100b:	48 85 c0             	test   rax,rax
    100e:	74 02                	je     1012 <_init+0x12>
    1010:	ff d0                	call   rax
    1012:	48 83 c4 08          	add    rsp,0x8
    1016:	c3                   	ret    

Disassembly of section .plt:

0000000000001020 <.plt>:
    1020:	ff 35 e2 2f 00 00    	push   QWORD PTR [rip+0x2fe2]        # 4008 <_GLOBAL_OFFSET_TABLE_+0x8>
    1026:	ff 25 e4 2f 00 00    	jmp    QWORD PTR [rip+0x2fe4]        # 4010 <_GLOBAL_OFFSET_TABLE_+0x10>
    102c:	0f 1f 40 00          	nop    DWORD PTR [rax+0x0]

0000000000001030 <printf@plt>:
    1030:	ff 25 e2 2f 00 00    	jmp    QWORD PTR [rip+0x2fe2]        # 4018 <printf@GLIBC_2.2.5>
    1036:	68 00 00 00 00       	push   0x0
    103b:	e9 e0 ff ff ff       	jmp    1020 <.plt>

0000000000001040 <srand@plt>:
    1040:	ff 25 da 2f 00 00    	jmp    QWORD PTR [rip+0x2fda]        # 4020 <srand@GLIBC_2.2.5>
    1046:	68 01 00 00 00       	push   0x1
    104b:	e9 d0 ff ff ff       	jmp    1020 <.plt>

0000000000001050 <time@plt>:
    1050:	ff 25 d2 2f 00 00    	jmp    QWORD PTR [rip+0x2fd2]        # 4028 <time@GLIBC_2.2.5>
    1056:	68 02 00 00 00       	push   0x2
    105b:	e9 c0 ff ff ff       	jmp    1020 <.plt>

0000000000001060 <__isoc99_scanf@plt>:
    1060:	ff 25 ca 2f 00 00    	jmp    QWORD PTR [rip+0x2fca]        # 4030 <__isoc99_scanf@GLIBC_2.7>
    1066:	68 03 00 00 00       	push   0x3
    106b:	e9 b0 ff ff ff       	jmp    1020 <.plt>

Disassembly of section .plt.got:

0000000000001070 <__cxa_finalize@plt>:
    1070:	ff 25 82 2f 00 00    	jmp    QWORD PTR [rip+0x2f82]        # 3ff8 <__cxa_finalize@GLIBC_2.2.5>
    1076:	66 90                	xchg   ax,ax

Disassembly of section .text:

0000000000001080 <_start>:
    1080:	31 ed                	xor    ebp,ebp
    1082:	49 89 d1             	mov    r9,rdx
    1085:	5e                   	pop    rsi
    1086:	48 89 e2             	mov    rdx,rsp
    1089:	48 83 e4 f0          	and    rsp,0xfffffffffffffff0
    108d:	50                   	push   rax
    108e:	54                   	push   rsp
    108f:	4c 8d 05 7a 02 00 00 	lea    r8,[rip+0x27a]        # 1310 <__libc_csu_fini>
    1096:	48 8d 0d 13 02 00 00 	lea    rcx,[rip+0x213]        # 12b0 <__libc_csu_init>
    109d:	48 8d 3d 43 01 00 00 	lea    rdi,[rip+0x143]        # 11e7 <main>
    10a4:	ff 15 36 2f 00 00    	call   QWORD PTR [rip+0x2f36]        # 3fe0 <__libc_start_main@GLIBC_2.2.5>
    10aa:	f4                   	hlt    
    10ab:	0f 1f 44 00 00       	nop    DWORD PTR [rax+rax*1+0x0]

00000000000010b0 <deregister_tm_clones>:
    10b0:	48 8d 3d 91 2f 00 00 	lea    rdi,[rip+0x2f91]        # 4048 <__TMC_END__>
    10b7:	48 8d 05 8a 2f 00 00 	lea    rax,[rip+0x2f8a]        # 4048 <__TMC_END__>
    10be:	48 39 f8             	cmp    rax,rdi
    10c1:	74 15                	je     10d8 <deregister_tm_clones+0x28>
    10c3:	48 8b 05 0e 2f 00 00 	mov    rax,QWORD PTR [rip+0x2f0e]        # 3fd8 <_ITM_deregisterTMCloneTable>
    10ca:	48 85 c0             	test   rax,rax
    10cd:	74 09                	je     10d8 <deregister_tm_clones+0x28>
    10cf:	ff e0                	jmp    rax
    10d1:	0f 1f 80 00 00 00 00 	nop    DWORD PTR [rax+0x0]
    10d8:	c3                   	ret    
    10d9:	0f 1f 80 00 00 00 00 	nop    DWORD PTR [rax+0x0]

00000000000010e0 <register_tm_clones>:
    10e0:	48 8d 3d 61 2f 00 00 	lea    rdi,[rip+0x2f61]        # 4048 <__TMC_END__>
    10e7:	48 8d 35 5a 2f 00 00 	lea    rsi,[rip+0x2f5a]        # 4048 <__TMC_END__>
    10ee:	48 29 fe             	sub    rsi,rdi
    10f1:	48 c1 fe 03          	sar    rsi,0x3
    10f5:	48 89 f0             	mov    rax,rsi
    10f8:	48 c1 e8 3f          	shr    rax,0x3f
    10fc:	48 01 c6             	add    rsi,rax
    10ff:	48 d1 fe             	sar    rsi,1
    1102:	74 14                	je     1118 <register_tm_clones+0x38>
    1104:	48 8b 05 e5 2e 00 00 	mov    rax,QWORD PTR [rip+0x2ee5]        # 3ff0 <_ITM_registerTMCloneTable>
    110b:	48 85 c0             	test   rax,rax
    110e:	74 08                	je     1118 <register_tm_clones+0x38>
    1110:	ff e0                	jmp    rax
    1112:	66 0f 1f 44 00 00    	nop    WORD PTR [rax+rax*1+0x0]
    1118:	c3                   	ret    
    1119:	0f 1f 80 00 00 00 00 	nop    DWORD PTR [rax+0x0]

0000000000001120 <__do_global_dtors_aux>:
    1120:	80 3d 21 2f 00 00 00 	cmp    BYTE PTR [rip+0x2f21],0x0        # 4048 <__TMC_END__>
    1127:	75 2f                	jne    1158 <__do_global_dtors_aux+0x38>
    1129:	55                   	push   rbp
    112a:	48 83 3d c6 2e 00 00 	cmp    QWORD PTR [rip+0x2ec6],0x0        # 3ff8 <__cxa_finalize@GLIBC_2.2.5>
    1131:	00 
    1132:	48 89 e5             	mov    rbp,rsp
    1135:	74 0c                	je     1143 <__do_global_dtors_aux+0x23>
    1137:	48 8b 3d 02 2f 00 00 	mov    rdi,QWORD PTR [rip+0x2f02]        # 4040 <__dso_handle>
    113e:	e8 2d ff ff ff       	call   1070 <__cxa_finalize@plt>
    1143:	e8 68 ff ff ff       	call   10b0 <deregister_tm_clones>
    1148:	c6 05 f9 2e 00 00 01 	mov    BYTE PTR [rip+0x2ef9],0x1        # 4048 <__TMC_END__>
    114f:	5d                   	pop    rbp
    1150:	c3                   	ret    
    1151:	0f 1f 80 00 00 00 00 	nop    DWORD PTR [rax+0x0]
    1158:	c3                   	ret    
    1159:	0f 1f 80 00 00 00 00 	nop    DWORD PTR [rax+0x0]

0000000000001160 <frame_dummy>:
    1160:	e9 7b ff ff ff       	jmp    10e0 <register_tm_clones>

0000000000001165 <transform>:
    1165:	55                   	push   rbp
    1166:	48 89 e5             	mov    rbp,rsp
    1169:	89 f8                	mov    eax,edi
    116b:	89 75 f8             	mov    DWORD PTR [rbp-0x8],esi
    116e:	48 89 55 f0          	mov    QWORD PTR [rbp-0x10],rdx
    1172:	88 45 fc             	mov    BYTE PTR [rbp-0x4],al
    1175:	0f be 45 fc          	movsx  eax,BYTE PTR [rbp-0x4]
    1179:	83 f8 01             	cmp    eax,0x1
    117c:	74 2a                	je     11a8 <transform+0x43>
    117e:	83 f8 01             	cmp    eax,0x1
    1181:	7f 06                	jg     1189 <transform+0x24>
    1183:	85 c0                	test   eax,eax
    1185:	74 0e                	je     1195 <transform+0x30>
    1187:	eb 5b                	jmp    11e4 <transform+0x7f>
    1189:	83 f8 02             	cmp    eax,0x2
    118c:	74 2d                	je     11bb <transform+0x56>
    118e:	83 f8 03             	cmp    eax,0x3
    1191:	74 3c                	je     11cf <transform+0x6a>
    1193:	eb 4f                	jmp    11e4 <transform+0x7f>
    1195:	48 8b 45 f0          	mov    rax,QWORD PTR [rbp-0x10]
    1199:	8b 10                	mov    edx,DWORD PTR [rax]
    119b:	8b 45 f8             	mov    eax,DWORD PTR [rbp-0x8]
    119e:	01 c2                	add    edx,eax
    11a0:	48 8b 45 f0          	mov    rax,QWORD PTR [rbp-0x10]
    11a4:	89 10                	mov    DWORD PTR [rax],edx
    11a6:	eb 3c                	jmp    11e4 <transform+0x7f>
    11a8:	48 8b 45 f0          	mov    rax,QWORD PTR [rbp-0x10]
    11ac:	8b 00                	mov    eax,DWORD PTR [rax]
    11ae:	8b 55 f8             	mov    edx,DWORD PTR [rbp-0x8]
    11b1:	29 c2                	sub    edx,eax
    11b3:	48 8b 45 f0          	mov    rax,QWORD PTR [rbp-0x10]
    11b7:	89 10                	mov    DWORD PTR [rax],edx
    11b9:	eb 29                	jmp    11e4 <transform+0x7f>
    11bb:	48 8b 45 f0          	mov    rax,QWORD PTR [rbp-0x10]
    11bf:	8b 00                	mov    eax,DWORD PTR [rax]
    11c1:	0f af 45 f8          	imul   eax,DWORD PTR [rbp-0x8]
    11c5:	89 c2                	mov    edx,eax
    11c7:	48 8b 45 f0          	mov    rax,QWORD PTR [rbp-0x10]
    11cb:	89 10                	mov    DWORD PTR [rax],edx
    11cd:	eb 15                	jmp    11e4 <transform+0x7f>
    11cf:	48 8b 45 f0          	mov    rax,QWORD PTR [rbp-0x10]
    11d3:	8b 08                	mov    ecx,DWORD PTR [rax]
    11d5:	8b 45 f8             	mov    eax,DWORD PTR [rbp-0x8]
    11d8:	99                   	cdq    
    11d9:	f7 f9                	idiv   ecx
    11db:	89 c2                	mov    edx,eax
    11dd:	48 8b 45 f0          	mov    rax,QWORD PTR [rbp-0x10]
    11e1:	89 10                	mov    DWORD PTR [rax],edx
    11e3:	90                   	nop
    11e4:	90                   	nop
    11e5:	5d                   	pop    rbp
    11e6:	c3                   	ret    

00000000000011e7 <main>:
    11e7:	55                   	push   rbp
    11e8:	48 89 e5             	mov    rbp,rsp
    11eb:	48 83 ec 20          	sub    rsp,0x20
    11ef:	bf 00 00 00 00       	mov    edi,0x0
    11f4:	e8 57 fe ff ff       	call   1050 <time@plt>
    11f9:	89 c7                	mov    edi,eax
    11fb:	e8 40 fe ff ff       	call   1040 <srand@plt>
    1200:	c7 45 fc 03 00 00 00 	mov    DWORD PTR [rbp-0x4],0x3
    1207:	c7 45 f4 06 00 00 00 	mov    DWORD PTR [rbp-0xc],0x6
    120e:	c7 45 f0 02 00 00 00 	mov    DWORD PTR [rbp-0x10],0x2
    1215:	c6 45 fb 02          	mov    BYTE PTR [rbp-0x5],0x2
    1219:	c6 45 fa 03          	mov    BYTE PTR [rbp-0x6],0x3
    121d:	0f be 45 fb          	movsx  eax,BYTE PTR [rbp-0x5]
    1221:	48 8d 55 f4          	lea    rdx,[rbp-0xc]
    1225:	8b 4d fc             	mov    ecx,DWORD PTR [rbp-0x4]
    1228:	89 ce                	mov    esi,ecx
    122a:	89 c7                	mov    edi,eax
    122c:	e8 34 ff ff ff       	call   1165 <transform>
    1231:	8b 4d f4             	mov    ecx,DWORD PTR [rbp-0xc]
    1234:	0f be 45 fa          	movsx  eax,BYTE PTR [rbp-0x6]
    1238:	48 8d 55 f0          	lea    rdx,[rbp-0x10]
    123c:	89 ce                	mov    esi,ecx
    123e:	89 c7                	mov    edi,eax
    1240:	e8 20 ff ff ff       	call   1165 <transform>
    1245:	48 8d 3d b8 0d 00 00 	lea    rdi,[rip+0xdb8]        # 2004 <_IO_stdin_used+0x4>
    124c:	b8 00 00 00 00       	mov    eax,0x0
    1251:	e8 da fd ff ff       	call   1030 <printf@plt>
    1256:	48 8d 45 ec          	lea    rax,[rbp-0x14]
    125a:	48 89 c6             	mov    rsi,rax
    125d:	48 8d 3d bb 0d 00 00 	lea    rdi,[rip+0xdbb]        # 201f <_IO_stdin_used+0x1f>
    1264:	b8 00 00 00 00       	mov    eax,0x0
    1269:	e8 f2 fd ff ff       	call   1060 <__isoc99_scanf@plt>
    126e:	8b 55 ec             	mov    edx,DWORD PTR [rbp-0x14]
    1271:	8b 45 f0             	mov    eax,DWORD PTR [rbp-0x10]
    1274:	39 c2                	cmp    edx,eax
    1276:	75 13                	jne    128b <main+0xa4>
    1278:	48 8d 3d a3 0d 00 00 	lea    rdi,[rip+0xda3]        # 2022 <_IO_stdin_used+0x22>
    127f:	b8 00 00 00 00       	mov    eax,0x0
    1284:	e8 a7 fd ff ff       	call   1030 <printf@plt>
    1289:	eb 11                	jmp    129c <main+0xb5>
    128b:	48 8d 3d a5 0d 00 00 	lea    rdi,[rip+0xda5]        # 2037 <_IO_stdin_used+0x37>
    1292:	b8 00 00 00 00       	mov    eax,0x0
    1297:	e8 94 fd ff ff       	call   1030 <printf@plt>
    129c:	b8 00 00 00 00       	mov    eax,0x0
    12a1:	c9                   	leave  
    12a2:	c3                   	ret    
    12a3:	66 2e 0f 1f 84 00 00 	nop    WORD PTR cs:[rax+rax*1+0x0]
    12aa:	00 00 00 
    12ad:	0f 1f 00             	nop    DWORD PTR [rax]

00000000000012b0 <__libc_csu_init>:
    12b0:	41 57                	push   r15
    12b2:	49 89 d7             	mov    r15,rdx
    12b5:	41 56                	push   r14
    12b7:	49 89 f6             	mov    r14,rsi
    12ba:	41 55                	push   r13
    12bc:	41 89 fd             	mov    r13d,edi
    12bf:	41 54                	push   r12
    12c1:	4c 8d 25 20 2b 00 00 	lea    r12,[rip+0x2b20]        # 3de8 <__frame_dummy_init_array_entry>
    12c8:	55                   	push   rbp
    12c9:	48 8d 2d 20 2b 00 00 	lea    rbp,[rip+0x2b20]        # 3df0 <__init_array_end>
    12d0:	53                   	push   rbx
    12d1:	4c 29 e5             	sub    rbp,r12
    12d4:	48 83 ec 08          	sub    rsp,0x8
    12d8:	e8 23 fd ff ff       	call   1000 <_init>
    12dd:	48 c1 fd 03          	sar    rbp,0x3
    12e1:	74 1b                	je     12fe <__libc_csu_init+0x4e>
    12e3:	31 db                	xor    ebx,ebx
    12e5:	0f 1f 00             	nop    DWORD PTR [rax]
    12e8:	4c 89 fa             	mov    rdx,r15
    12eb:	4c 89 f6             	mov    rsi,r14
    12ee:	44 89 ef             	mov    edi,r13d
    12f1:	41 ff 14 dc          	call   QWORD PTR [r12+rbx*8]
    12f5:	48 83 c3 01          	add    rbx,0x1
    12f9:	48 39 dd             	cmp    rbp,rbx
    12fc:	75 ea                	jne    12e8 <__libc_csu_init+0x38>
    12fe:	48 83 c4 08          	add    rsp,0x8
    1302:	5b                   	pop    rbx
    1303:	5d                   	pop    rbp
    1304:	41 5c                	pop    r12
    1306:	41 5d                	pop    r13
    1308:	41 5e                	pop    r14
    130a:	41 5f                	pop    r15
    130c:	c3                   	ret    
    130d:	0f 1f 00             	nop    DWORD PTR [rax]

0000000000001310 <__libc_csu_fini>:
    1310:	c3                   	ret    

Disassembly of section .fini:

0000000000001314 <_fini>:
    1314:	48 83 ec 08          	sub    rsp,0x8
    1318:	48 83 c4 08          	add    rsp,0x8
    131c:	c3                   	ret    

a.out:     file format elf64-x86-64


Disassembly of section .init:

0000000000001000 <_init>:
    1000:	48 83 ec 08          	sub    rsp,0x8
    1004:	48 8b 05 dd 2f 00 00 	mov    rax,QWORD PTR [rip+0x2fdd]        # 3fe8 <__gmon_start__>
    100b:	48 85 c0             	test   rax,rax
    100e:	74 02                	je     1012 <_init+0x12>
    1010:	ff d0                	call   rax
    1012:	48 83 c4 08          	add    rsp,0x8
    1016:	c3                   	ret    

Disassembly of section .plt:

0000000000001020 <.plt>:
    1020:	ff 35 e2 2f 00 00    	push   QWORD PTR [rip+0x2fe2]        # 4008 <_GLOBAL_OFFSET_TABLE_+0x8>
    1026:	ff 25 e4 2f 00 00    	jmp    QWORD PTR [rip+0x2fe4]        # 4010 <_GLOBAL_OFFSET_TABLE_+0x10>
    102c:	0f 1f 40 00          	nop    DWORD PTR [rax+0x0]

0000000000001030 <printf@plt>:
    1030:	ff 25 e2 2f 00 00    	jmp    QWORD PTR [rip+0x2fe2]        # 4018 <printf@GLIBC_2.2.5>
    1036:	68 00 00 00 00       	push   0x0
    103b:	e9 e0 ff ff ff       	jmp    1020 <.plt>

0000000000001040 <srand@plt>:
    1040:	ff 25 da 2f 00 00    	jmp    QWORD PTR [rip+0x2fda]        # 4020 <srand@GLIBC_2.2.5>
    1046:	68 01 00 00 00       	push   0x1
    104b:	e9 d0 ff ff ff       	jmp    1020 <.plt>

0000000000001050 <time@plt>:
    1050:	ff 25 d2 2f 00 00    	jmp    QWORD PTR [rip+0x2fd2]        # 4028 <time@GLIBC_2.2.5>
    1056:	68 02 00 00 00       	push   0x2
    105b:	e9 c0 ff ff ff       	jmp    1020 <.plt>

0000000000001060 <__isoc99_scanf@plt>:
    1060:	ff 25 ca 2f 00 00    	jmp    QWORD PTR [rip+0x2fca]        # 4030 <__isoc99_scanf@GLIBC_2.7>
    1066:	68 03 00 00 00       	push   0x3
    106b:	e9 b0 ff ff ff       	jmp    1020 <.plt>

Disassembly of section .plt.got:

0000000000001070 <__cxa_finalize@plt>:
    1070:	ff 25 82 2f 00 00    	jmp    QWORD PTR [rip+0x2f82]        # 3ff8 <__cxa_finalize@GLIBC_2.2.5>
    1076:	66 90                	xchg   ax,ax

Disassembly of section .text:

0000000000001080 <_start>:
    1080:	31 ed                	xor    ebp,ebp
    1082:	49 89 d1             	mov    r9,rdx
    1085:	5e                   	pop    rsi
    1086:	48 89 e2             	mov    rdx,rsp
    1089:	48 83 e4 f0          	and    rsp,0xfffffffffffffff0
    108d:	50                   	push   rax
    108e:	54                   	push   rsp
    108f:	4c 8d 05 7a 02 00 00 	lea    r8,[rip+0x27a]        # 1310 <__libc_csu_fini>
    1096:	48 8d 0d 13 02 00 00 	lea    rcx,[rip+0x213]        # 12b0 <__libc_csu_init>
    109d:	48 8d 3d 43 01 00 00 	lea    rdi,[rip+0x143]        # 11e7 <main>
    10a4:	ff 15 36 2f 00 00    	call   QWORD PTR [rip+0x2f36]        # 3fe0 <__libc_start_main@GLIBC_2.2.5>
    10aa:	f4                   	hlt    
    10ab:	0f 1f 44 00 00       	nop    DWORD PTR [rax+rax*1+0x0]

00000000000010b0 <deregister_tm_clones>:
    10b0:	48 8d 3d 91 2f 00 00 	lea    rdi,[rip+0x2f91]        # 4048 <__TMC_END__>
    10b7:	48 8d 05 8a 2f 00 00 	lea    rax,[rip+0x2f8a]        # 4048 <__TMC_END__>
    10be:	48 39 f8             	cmp    rax,rdi
    10c1:	74 15                	je     10d8 <deregister_tm_clones+0x28>
    10c3:	48 8b 05 0e 2f 00 00 	mov    rax,QWORD PTR [rip+0x2f0e]        # 3fd8 <_ITM_deregisterTMCloneTable>
    10ca:	48 85 c0             	test   rax,rax
    10cd:	74 09                	je     10d8 <deregister_tm_clones+0x28>
    10cf:	ff e0                	jmp    rax
    10d1:	0f 1f 80 00 00 00 00 	nop    DWORD PTR [rax+0x0]
    10d8:	c3                   	ret    
    10d9:	0f 1f 80 00 00 00 00 	nop    DWORD PTR [rax+0x0]

00000000000010e0 <register_tm_clones>:
    10e0:	48 8d 3d 61 2f 00 00 	lea    rdi,[rip+0x2f61]        # 4048 <__TMC_END__>
    10e7:	48 8d 35 5a 2f 00 00 	lea    rsi,[rip+0x2f5a]        # 4048 <__TMC_END__>
    10ee:	48 29 fe             	sub    rsi,rdi
    10f1:	48 c1 fe 03          	sar    rsi,0x3
    10f5:	48 89 f0             	mov    rax,rsi
    10f8:	48 c1 e8 3f          	shr    rax,0x3f
    10fc:	48 01 c6             	add    rsi,rax
    10ff:	48 d1 fe             	sar    rsi,1
    1102:	74 14                	je     1118 <register_tm_clones+0x38>
    1104:	48 8b 05 e5 2e 00 00 	mov    rax,QWORD PTR [rip+0x2ee5]        # 3ff0 <_ITM_registerTMCloneTable>
    110b:	48 85 c0             	test   rax,rax
    110e:	74 08                	je     1118 <register_tm_clones+0x38>
    1110:	ff e0                	jmp    rax
    1112:	66 0f 1f 44 00 00    	nop    WORD PTR [rax+rax*1+0x0]
    1118:	c3                   	ret    
    1119:	0f 1f 80 00 00 00 00 	nop    DWORD PTR [rax+0x0]

0000000000001120 <__do_global_dtors_aux>:
    1120:	80 3d 21 2f 00 00 00 	cmp    BYTE PTR [rip+0x2f21],0x0        # 4048 <__TMC_END__>
    1127:	75 2f                	jne    1158 <__do_global_dtors_aux+0x38>
    1129:	55                   	push   rbp
    112a:	48 83 3d c6 2e 00 00 	cmp    QWORD PTR [rip+0x2ec6],0x0        # 3ff8 <__cxa_finalize@GLIBC_2.2.5>
    1131:	00 
    1132:	48 89 e5             	mov    rbp,rsp
    1135:	74 0c                	je     1143 <__do_global_dtors_aux+0x23>
    1137:	48 8b 3d 02 2f 00 00 	mov    rdi,QWORD PTR [rip+0x2f02]        # 4040 <__dso_handle>
    113e:	e8 2d ff ff ff       	call   1070 <__cxa_finalize@plt>
    1143:	e8 68 ff ff ff       	call   10b0 <deregister_tm_clones>
    1148:	c6 05 f9 2e 00 00 01 	mov    BYTE PTR [rip+0x2ef9],0x1        # 4048 <__TMC_END__>
    114f:	5d                   	pop    rbp
    1150:	c3                   	ret    
    1151:	0f 1f 80 00 00 00 00 	nop    DWORD PTR [rax+0x0]
    1158:	c3                   	ret    
    1159:	0f 1f 80 00 00 00 00 	nop    DWORD PTR [rax+0x0]

0000000000001160 <frame_dummy>:
    1160:	e9 7b ff ff ff       	jmp    10e0 <register_tm_clones>

0000000000001165 <transform>:
    1165:	55                   	push   rbp
    1166:	48 89 e5             	mov    rbp,rsp
    1169:	89 f8                	mov    eax,edi
    116b:	89 75 f8             	mov    DWORD PTR [rbp-0x8],esi
    116e:	48 89 55 f0          	mov    QWORD PTR [rbp-0x10],rdx
    1172:	88 45 fc             	mov    BYTE PTR [rbp-0x4],al
    1175:	0f be 45 fc          	movsx  eax,BYTE PTR [rbp-0x4]
    1179:	83 f8 01             	cmp    eax,0x1
    117c:	74 2a                	je     11a8 <transform+0x43>
    117e:	83 f8 01             	cmp    eax,0x1
    1181:	7f 06                	jg     1189 <transform+0x24>
    1183:	85 c0                	test   eax,eax
    1185:	74 0e                	je     1195 <transform+0x30>
    1187:	eb 5b                	jmp    11e4 <transform+0x7f>
    1189:	83 f8 02             	cmp    eax,0x2
    118c:	74 2d                	je     11bb <transform+0x56>
    118e:	83 f8 03             	cmp    eax,0x3
    1191:	74 3c                	je     11cf <transform+0x6a>
    1193:	eb 4f                	jmp    11e4 <transform+0x7f>
    1195:	48 8b 45 f0          	mov    rax,QWORD PTR [rbp-0x10]
    1199:	8b 10                	mov    edx,DWORD PTR [rax]
    119b:	8b 45 f8             	mov    eax,DWORD PTR [rbp-0x8]
    119e:	01 c2                	add    edx,eax
    11a0:	48 8b 45 f0          	mov    rax,QWORD PTR [rbp-0x10]
    11a4:	89 10                	mov    DWORD PTR [rax],edx
    11a6:	eb 3c                	jmp    11e4 <transform+0x7f>
    11a8:	48 8b 45 f0          	mov    rax,QWORD PTR [rbp-0x10]
    11ac:	8b 00                	mov    eax,DWORD PTR [rax]
    11ae:	8b 55 f8             	mov    edx,DWORD PTR [rbp-0x8]
    11b1:	29 c2                	sub    edx,eax
    11b3:	48 8b 45 f0          	mov    rax,QWORD PTR [rbp-0x10]
    11b7:	89 10                	mov    DWORD PTR [rax],edx
    11b9:	eb 29                	jmp    11e4 <transform+0x7f>
    11bb:	48 8b 45 f0          	mov    rax,QWORD PTR [rbp-0x10]
    11bf:	8b 00                	mov    eax,DWORD PTR [rax]
    11c1:	0f af 45 f8          	imul   eax,DWORD PTR [rbp-0x8]
    11c5:	89 c2                	mov    edx,eax
    11c7:	48 8b 45 f0          	mov    rax,QWORD PTR [rbp-0x10]
    11cb:	89 10                	mov    DWORD PTR [rax],edx
    11cd:	eb 15                	jmp    11e4 <transform+0x7f>
    11cf:	48 8b 45 f0          	mov    rax,QWORD PTR [rbp-0x10]
    11d3:	8b 08                	mov    ecx,DWORD PTR [rax]
    11d5:	8b 45 f8             	mov    eax,DWORD PTR [rbp-0x8]
    11d8:	99                   	cdq    
    11d9:	f7 f9                	idiv   ecx
    11db:	89 c2                	mov    edx,eax
    11dd:	48 8b 45 f0          	mov    rax,QWORD PTR [rbp-0x10]
    11e1:	89 10                	mov    DWORD PTR [rax],edx
    11e3:	90                   	nop
    11e4:	90                   	nop
    11e5:	5d                   	pop    rbp
    11e6:	c3                   	ret    

00000000000011e7 <main>:
    11e7:	55                   	push   rbp
    11e8:	48 89 e5             	mov    rbp,rsp
    11eb:	48 83 ec 20          	sub    rsp,0x20
    11ef:	bf 00 00 00 00       	mov    edi,0x0
    11f4:	e8 57 fe ff ff       	call   1050 <time@plt>
    11f9:	89 c7                	mov    edi,eax
    11fb:	e8 40 fe ff ff       	call   1040 <srand@plt>
    1200:	c7 45 fc 03 00 00 00 	mov    DWORD PTR [rbp-0x4],0x3
    1207:	c7 45 f4 06 00 00 00 	mov    DWORD PTR [rbp-0xc],0x6
    120e:	c7 45 f0 02 00 00 00 	mov    DWORD PTR [rbp-0x10],0x2
    1215:	c6 45 fb 02          	mov    BYTE PTR [rbp-0x5],0x2
    1219:	c6 45 fa 03          	mov    BYTE PTR [rbp-0x6],0x3
    121d:	0f be 45 fb          	movsx  eax,BYTE PTR [rbp-0x5]
    1221:	48 8d 55 f4          	lea    rdx,[rbp-0xc]
    1225:	8b 4d fc             	mov    ecx,DWORD PTR [rbp-0x4]
    1228:	89 ce                	mov    esi,ecx
    122a:	89 c7                	mov    edi,eax
    122c:	e8 34 ff ff ff       	call   1165 <transform>
    1231:	8b 4d f4             	mov    ecx,DWORD PTR [rbp-0xc]
    1234:	0f be 45 fa          	movsx  eax,BYTE PTR [rbp-0x6]
    1238:	48 8d 55 f0          	lea    rdx,[rbp-0x10]
    123c:	89 ce                	mov    esi,ecx
    123e:	89 c7                	mov    edi,eax
    1240:	e8 20 ff ff ff       	call   1165 <transform>
    1245:	48 8d 3d b8 0d 00 00 	lea    rdi,[rip+0xdb8]        # 2004 <_IO_stdin_used+0x4>
    124c:	b8 00 00 00 00       	mov    eax,0x0
    1251:	e8 da fd ff ff       	call   1030 <printf@plt>
    1256:	48 8d 45 ec          	lea    rax,[rbp-0x14]
    125a:	48 89 c6             	mov    rsi,rax
    125d:	48 8d 3d bb 0d 00 00 	lea    rdi,[rip+0xdbb]        # 201f <_IO_stdin_used+0x1f>
    1264:	b8 00 00 00 00       	mov    eax,0x0
    1269:	e8 f2 fd ff ff       	call   1060 <__isoc99_scanf@plt>
    126e:	8b 55 ec             	mov    edx,DWORD PTR [rbp-0x14]
    1271:	8b 45 f0             	mov    eax,DWORD PTR [rbp-0x10]
    1274:	39 c2                	cmp    edx,eax
    1276:	75 13                	jne    128b <main+0xa4>
    1278:	48 8d 3d a3 0d 00 00 	lea    rdi,[rip+0xda3]        # 2022 <_IO_stdin_used+0x22>
    127f:	b8 00 00 00 00       	mov    eax,0x0
    1284:	e8 a7 fd ff ff       	call   1030 <printf@plt>
    1289:	eb 11                	jmp    129c <main+0xb5>
    128b:	48 8d 3d a5 0d 00 00 	lea    rdi,[rip+0xda5]        # 2037 <_IO_stdin_used+0x37>
    1292:	b8 00 00 00 00       	mov    eax,0x0
    1297:	e8 94 fd ff ff       	call   1030 <printf@plt>
    129c:	b8 00 00 00 00       	mov    eax,0x0
    12a1:	c9                   	leave  
    12a2:	c3                   	ret    
    12a3:	66 2e 0f 1f 84 00 00 	nop    WORD PTR cs:[rax+rax*1+0x0]
    12aa:	00 00 00 
    12ad:	0f 1f 00             	nop    DWORD PTR [rax]

00000000000012b0 <__libc_csu_init>:
    12b0:	41 57                	push   r15
    12b2:	49 89 d7             	mov    r15,rdx
    12b5:	41 56                	push   r14
    12b7:	49 89 f6             	mov    r14,rsi
    12ba:	41 55                	push   r13
    12bc:	41 89 fd             	mov    r13d,edi
    12bf:	41 54                	push   r12
    12c1:	4c 8d 25 20 2b 00 00 	lea    r12,[rip+0x2b20]        # 3de8 <__frame_dummy_init_array_entry>
    12c8:	55                   	push   rbp
    12c9:	48 8d 2d 20 2b 00 00 	lea    rbp,[rip+0x2b20]        # 3df0 <__init_array_end>
    12d0:	53                   	push   rbx
    12d1:	4c 29 e5             	sub    rbp,r12
    12d4:	48 83 ec 08          	sub    rsp,0x8
    12d8:	e8 23 fd ff ff       	call   1000 <_init>
    12dd:	48 c1 fd 03          	sar    rbp,0x3
    12e1:	74 1b                	je     12fe <__libc_csu_init+0x4e>
    12e3:	31 db                	xor    ebx,ebx
    12e5:	0f 1f 00             	nop    DWORD PTR [rax]
    12e8:	4c 89 fa             	mov    rdx,r15
    12eb:	4c 89 f6             	mov    rsi,r14
    12ee:	44 89 ef             	mov    edi,r13d
    12f1:	41 ff 14 dc          	call   QWORD PTR [r12+rbx*8]
    12f5:	48 83 c3 01          	add    rbx,0x1
    12f9:	48 39 dd             	cmp    rbp,rbx
    12fc:	75 ea                	jne    12e8 <__libc_csu_init+0x38>
    12fe:	48 83 c4 08          	add    rsp,0x8
    1302:	5b                   	pop    rbx
    1303:	5d                   	pop    rbp
    1304:	41 5c                	pop    r12
    1306:	41 5d                	pop    r13
    1308:	41 5e                	pop    r14
    130a:	41 5f                	pop    r15
    130c:	c3                   	ret    
    130d:	0f 1f 00             	nop    DWORD PTR [rax]

0000000000001310 <__libc_csu_fini>:
    1310:	c3                   	ret    

Disassembly of section .fini:

0000000000001314 <_fini>:
    1314:	48 83 ec 08          	sub    rsp,0x8
    1318:	48 83 c4 08          	add    rsp,0x8
    131c:	c3                   	ret    
